# Fdb version 3
["pdflatex"] 1521085303 "tp2.tex" "tp2.pdf" "tp2" 1521085303
  "/usr/share/texmf-dist/fonts/map/fontname/texfonts.map" 1520157216 3332 103109f5612ad95229751940c61aada0 ""
  "/usr/share/texmf-dist/fonts/tfm/public/amsfonts/cmextra/cmex7.tfm" 1520157226 1004 54797486969f23fa377b128694d548df ""
  "/usr/share/texmf-dist/fonts/tfm/public/amsfonts/cmextra/cmex8.tfm" 1520157226 988 bdf658c3bfc2d96d3c8b02cfc1c94c20 ""
  "/usr/share/texmf-dist/fonts/tfm/public/amsfonts/symbols/msam10.tfm" 1520157226 916 f87d7c45f9c908e672703b83b72241a3 ""
  "/usr/share/texmf-dist/fonts/tfm/public/amsfonts/symbols/msam5.tfm" 1520157226 924 9904cf1d39e9767e7a3622f2a125a565 ""
  "/usr/share/texmf-dist/fonts/tfm/public/amsfonts/symbols/msam7.tfm" 1520157226 928 2dc8d444221b7a635bb58038579b861a ""
  "/usr/share/texmf-dist/fonts/tfm/public/amsfonts/symbols/msbm10.tfm" 1520157226 908 2921f8a10601f252058503cc6570e581 ""
  "/usr/share/texmf-dist/fonts/tfm/public/amsfonts/symbols/msbm5.tfm" 1520157226 940 75ac932a52f80982a9f8ea75d03a34cf ""
  "/usr/share/texmf-dist/fonts/tfm/public/amsfonts/symbols/msbm7.tfm" 1520157226 940 228d6584342e91276bf566bcf9716b83 ""
  "/usr/share/texmf-dist/fonts/tfm/public/cm/cmbx10.tfm" 1520157226 1328 c834bbb027764024c09d3d2bf908b5f0 ""
  "/usr/share/texmf-dist/fonts/tfm/public/cm/cmbx12.tfm" 1520157226 1324 c910af8c371558dc20f2d7822f66fe64 ""
  "/usr/share/texmf-dist/fonts/tfm/public/cm/cmbx5.tfm" 1520157226 1332 f817c21a1ba54560425663374f1b651a ""
  "/usr/share/texmf-dist/fonts/tfm/public/cm/cmbx7.tfm" 1520157226 1336 3125ccb448c1a09074e3aa4a9832f130 ""
  "/usr/share/texmf-dist/fonts/tfm/public/cm/cmex10.tfm" 1520157226 992 662f679a0b3d2d53c1b94050fdaa3f50 ""
  "/usr/share/texmf-dist/fonts/tfm/public/cm/cmmi12.tfm" 1520157226 1524 4414a8315f39513458b80dfc63bff03a ""
  "/usr/share/texmf-dist/fonts/tfm/public/cm/cmmi6.tfm" 1520157226 1512 f21f83efb36853c0b70002322c1ab3ad ""
  "/usr/share/texmf-dist/fonts/tfm/public/cm/cmmi8.tfm" 1520157226 1520 eccf95517727cb11801f4f1aee3a21b4 ""
  "/usr/share/texmf-dist/fonts/tfm/public/cm/cmr12.tfm" 1520157226 1288 655e228510b4c2a1abe905c368440826 ""
  "/usr/share/texmf-dist/fonts/tfm/public/cm/cmr17.tfm" 1520157226 1292 296a67155bdbfc32aa9c636f21e91433 ""
  "/usr/share/texmf-dist/fonts/tfm/public/cm/cmr6.tfm" 1520157226 1300 b62933e007d01cfd073f79b963c01526 ""
  "/usr/share/texmf-dist/fonts/tfm/public/cm/cmr8.tfm" 1520157226 1292 21c1c5bfeaebccffdb478fd231a0997d ""
  "/usr/share/texmf-dist/fonts/tfm/public/cm/cmsy10.tfm" 1520157226 1124 6c73e740cf17375f03eec0ee63599741 ""
  "/usr/share/texmf-dist/fonts/tfm/public/cm/cmsy6.tfm" 1520157226 1116 933a60c408fc0a863a92debe84b2d294 ""
  "/usr/share/texmf-dist/fonts/tfm/public/cm/cmsy8.tfm" 1520157226 1120 8b7d695260f3cff42e636090a8002094 ""
  "/usr/share/texmf-dist/fonts/type1/public/amsfonts/cm/cmbx10.pfb" 1520157214 34811 78b52f49e893bcba91bd7581cdc144c0 ""
  "/usr/share/texmf-dist/fonts/type1/public/amsfonts/cm/cmbx12.pfb" 1520157214 32080 340ef9bf63678554ee606688e7b5339d ""
  "/usr/share/texmf-dist/fonts/type1/public/amsfonts/cm/cmex10.pfb" 1520157213 30251 6afa5cb1d0204815a708a080681d4674 ""
  "/usr/share/texmf-dist/fonts/type1/public/amsfonts/cm/cmmi10.pfb" 1520157213 36299 5f9df58c2139e7edcf37c8fca4bd384d ""
  "/usr/share/texmf-dist/fonts/type1/public/amsfonts/cm/cmmi5.pfb" 1520157213 37912 77d683123f92148345f3fc36a38d9ab1 ""
  "/usr/share/texmf-dist/fonts/type1/public/amsfonts/cm/cmmi7.pfb" 1520157213 36281 c355509802a035cadc5f15869451dcee ""
  "/usr/share/texmf-dist/fonts/type1/public/amsfonts/cm/cmr10.pfb" 1520157213 35752 024fb6c41858982481f6968b5fc26508 ""
  "/usr/share/texmf-dist/fonts/type1/public/amsfonts/cm/cmr12.pfb" 1520157213 32722 d7379af29a190c3f453aba36302ff5a9 ""
  "/usr/share/texmf-dist/fonts/type1/public/amsfonts/cm/cmr17.pfb" 1520157213 32362 179c33bbf43f19adbb3825bb4e36e57a ""
  "/usr/share/texmf-dist/fonts/type1/public/amsfonts/cm/cmr5.pfb" 1520157213 31809 8670ca339bf94e56da1fc21c80635e2a ""
  "/usr/share/texmf-dist/fonts/type1/public/amsfonts/cm/cmr7.pfb" 1520157213 32762 224316ccc9ad3ca0423a14971cfa7fc1 ""
  "/usr/share/texmf-dist/fonts/type1/public/amsfonts/cm/cmsy10.pfb" 1520157213 32569 5e5ddc8df908dea60932f3c484a54c0d ""
  "/usr/share/texmf-dist/fonts/type1/public/amsfonts/cm/cmsy5.pfb" 1520157213 32915 7bf7720c61a5b3a7ff25b0964421c9b6 ""
  "/usr/share/texmf-dist/fonts/type1/public/amsfonts/cm/cmsy7.pfb" 1520157213 32716 08e384dc442464e7285e891af9f45947 ""
  "/usr/share/texmf-dist/fonts/type1/public/amsfonts/symbols/msbm10.pfb" 1520157213 34694 ad62b13721ee8eda1dcc8993c8bd7041 ""
  "/usr/share/texmf-dist/tex/context/base/mkii/supp-pdf.mkii" 1520157251 71627 94eb9990bed73c364d7f53f960cc8c5b ""
  "/usr/share/texmf-dist/tex/generic/ifxetex/ifxetex.sty" 1520157235 1458 43ab4710dc82f3edeabecd0d099626b2 ""
  "/usr/share/texmf-dist/tex/generic/oberdiek/etexcmds.sty" 1520157236 7612 729a8cc22a1ee0029997c7f74717ae05 ""
  "/usr/share/texmf-dist/tex/generic/oberdiek/ifluatex.sty" 1520157236 7324 2310d1247db0114eb4726807c8837a0e ""
  "/usr/share/texmf-dist/tex/generic/oberdiek/ifpdf.sty" 1520157236 1251 d170e11a3246c3392bc7f59595af42cb ""
  "/usr/share/texmf-dist/tex/generic/oberdiek/ifvtex.sty" 1520157236 6797 90b7f83b0ad46826bc16058b1e3d48df ""
  "/usr/share/texmf-dist/tex/generic/oberdiek/infwarerr.sty" 1520157236 8253 473e0e41f9adadb1977e8631b8f72ea6 ""
  "/usr/share/texmf-dist/tex/generic/oberdiek/kvdefinekeys.sty" 1520157236 5152 b67a3a964ad9851e095110c854a1d461 ""
  "/usr/share/texmf-dist/tex/generic/oberdiek/kvsetkeys.sty" 1520157236 14040 ac8866aac45982ac84021584b0abb252 ""
  "/usr/share/texmf-dist/tex/generic/oberdiek/ltxcmds.sty" 1520157236 18425 5b3c0c59d76fac78978b5558e83c1f36 ""
  "/usr/share/texmf-dist/tex/generic/oberdiek/pdftexcmds.sty" 1520157236 20151 787afc7acba22d228640bdc06ce1177c ""
  "/usr/share/texmf-dist/tex/latex/algorithmicx/algorithmicx.sty" 1520158019 26750 ce139c05a983e19ddca355b43e29c395 ""
  "/usr/share/texmf-dist/tex/latex/algorithmicx/algpseudocode.sty" 1520158019 3457 d9077efe6b74c5a094199256af8d7d9a ""
  "/usr/share/texmf-dist/tex/latex/algorithms/algorithm.sty" 1520158019 3249 15763257e50278eef5db1952ccde229c ""
  "/usr/share/texmf-dist/tex/latex/amsfonts/amsfonts.sty" 1520157234 5949 3f3fd50a8cc94c3d4cbf4fc66cd3df1c ""
  "/usr/share/texmf-dist/tex/latex/amsfonts/amssymb.sty" 1520157234 13829 94730e64147574077f8ecfea9bb69af4 ""
  "/usr/share/texmf-dist/tex/latex/amsfonts/umsa.fd" 1520157234 961 6518c6525a34feb5e8250ffa91731cff ""
  "/usr/share/texmf-dist/tex/latex/amsfonts/umsb.fd" 1520157234 961 d02606146ba5601b5645f987c92e6193 ""
  "/usr/share/texmf-dist/tex/latex/amsmath/amsbsy.sty" 1520157234 2210 5c54ab129b848a5071554186d0168766 ""
  "/usr/share/texmf-dist/tex/latex/amsmath/amsgen.sty" 1520157234 4160 c115536cf8d4ff25aa8c1c9bc4ecb79a ""
  "/usr/share/texmf-dist/tex/latex/amsmath/amsmath.sty" 1520157234 84352 897a476d96a0681047a5b0f91178a3d2 ""
  "/usr/share/texmf-dist/tex/latex/amsmath/amsopn.sty" 1520157234 4115 318a66090112f3aa3f415aeb6fe8540f ""
  "/usr/share/texmf-dist/tex/latex/amsmath/amstext.sty" 1520157234 2431 fe3078ec12fc30287f568596f8e0b948 ""
  "/usr/share/texmf-dist/tex/latex/base/article.cls" 1520157233 19821 310da678527a7dfe2a02c88af38079b7 ""
  "/usr/share/texmf-dist/tex/latex/base/ifthen.sty" 1520157233 5159 a08c9bbd48fc492f15b22e458bef961f ""
  "/usr/share/texmf-dist/tex/latex/base/inputenc.sty" 1520157233 4732 d63eda807ac82cca2ca8488efd31a966 ""
  "/usr/share/texmf-dist/tex/latex/base/omscmr.fd" 1520157233 2256 80ce1168fb4ce6a85583a9cf8972c013 ""
  "/usr/share/texmf-dist/tex/latex/base/omsenc.dfu" 1520157233 2004 ac51aeac484f08c01026120d62677eca ""
  "/usr/share/texmf-dist/tex/latex/base/ot1enc.dfu" 1520157232 3181 1cb3e9ad01f4a01127b2ffd821bfeec7 ""
  "/usr/share/texmf-dist/tex/latex/base/size10.clo" 1520157232 8292 e897c12e1e886ce77fe26afc5d470886 ""
  "/usr/share/texmf-dist/tex/latex/base/t1enc.dfu" 1520157232 11255 9d97362866549d3d3c994b5f28d1b9b5 ""
  "/usr/share/texmf-dist/tex/latex/base/utf8.def" 1520157232 7784 325a2a09984cb5c4ff230f9867145ad3 ""
  "/usr/share/texmf-dist/tex/latex/enumitem/enumitem.sty" 1520158242 42666 6fa770e3485520a6a5f2ea7d259c8f8d ""
  "/usr/share/texmf-dist/tex/latex/float/float.sty" 1520157233 6749 16d2656a1984957e674b149555f1ea1d ""
  "/usr/share/texmf-dist/tex/latex/geometry/geometry.sty" 1520157233 40502 e003406220954b0716679d7928aedd8a ""
  "/usr/share/texmf-dist/tex/latex/graphics-cfg/color.cfg" 1520157233 1213 620bba36b25224fa9b7e1ccb4ecb76fd ""
  "/usr/share/texmf-dist/tex/latex/graphics-cfg/graphics.cfg" 1520157233 1224 978390e9c2234eab29404bc21b268d1e ""
  "/usr/share/texmf-dist/tex/latex/graphics-def/pdftex.def" 1520157233 17334 520b9b85ad8a2a48eda3f643e27a5179 ""
  "/usr/share/texmf-dist/tex/latex/graphics/color.sty" 1520157233 7031 4ca2945c73eec4e726c0da188fbbf50f ""
  "/usr/share/texmf-dist/tex/latex/graphics/graphics.sty" 1520157233 15275 7d676729b1bedd3e7f3c6717affb366c ""
  "/usr/share/texmf-dist/tex/latex/graphics/graphicx.sty" 1520157233 9066 649f2ccf62888e3d8c3e57256b70b8e1 ""
  "/usr/share/texmf-dist/tex/latex/graphics/keyval.sty" 1520157233 2594 d18d5e19aa8239cf867fa670c556d2e9 ""
  "/usr/share/texmf-dist/tex/latex/graphics/trig.sty" 1520157233 3980 0a268fbfda01e381fa95821ab13b6aee ""
  "/usr/share/texmf-dist/tex/latex/latexconfig/epstopdf-sys.cfg" 1520157233 678 4792914a8f45be57bb98413425e4c7af ""
  "/usr/share/texmf-dist/tex/latex/listings/listings.cfg" 1520157232 1827 d72ad54409ca5c1068a1939c63441bd2 ""
  "/usr/share/texmf-dist/tex/latex/listings/listings.sty" 1520157232 80336 ff90c926c3d7bfdaa3d80ca57123b0bb ""
  "/usr/share/texmf-dist/tex/latex/listings/lstlang1.sty" 1520157232 93445 48e5be20ba2d0a2ca5c4ce7e292a4bbc ""
  "/usr/share/texmf-dist/tex/latex/listings/lstmisc.sty" 1520157232 77028 c3eb00afb55a32bc13ca8da7f5234377 ""
  "/usr/share/texmf-dist/tex/latex/ms/everysel.sty" 1520157232 4623 936bfb87af7b91b6496a2317f80db16b ""
  "/usr/share/texmf-dist/tex/latex/ms/ragged2e.sty" 1520157232 9938 95cd4dc3edfd2c1a9e8f3f4cc43db1ce ""
  "/usr/share/texmf-dist/tex/latex/oberdiek/epstopdf-base.sty" 1520157232 12095 5337833c991d80788a43d3ce26bd1c46 ""
  "/usr/share/texmf-dist/tex/latex/oberdiek/grfext.sty" 1520157232 7075 2fe3d848bba95f139de11ded085e74aa ""
  "/usr/share/texmf-dist/tex/latex/oberdiek/kvoptions.sty" 1520157232 22417 1d9df1eb66848aa31b18a593099cf45c ""
  "/usr/share/texmf-dist/web2c/texmf.cnf" 1520157258 32585 d82bbcf7626b7842c87671687479e852 ""
  "/var/lib/texmf/fonts/map/pdftex/updmap/pdftex.map" 1521079707 2567517 1f5ba033cbdfd36b45b975fabb704a48 ""
  "/var/lib/texmf/web2c/pdftex/pdflatex.fmt" 1521079690 7738161 91b2c53380af2ad8607be5abf76f32e8 ""
  "tp2.aux" 1521085265 515 3ad7246a6e011d5818427c03d884f098 ""
  "tp2.tex" 1521085302 17476 e6ee4c67b62819a4e9b2ba32e84fb997 ""
  (generated)
  "tp2.pdf"
  "tp2.aux"
  "tp2.log"
