\relax 
\@writefile{toc}{\contentsline {section}{\numberline {1}Convolutions}{1}}
\@writefile{toc}{\contentsline {section}{\numberline {2}Convolutional Neural Networks}{1}}
\@writefile{toc}{\contentsline {section}{\numberline {3}Kernel configuration for CNNs}{1}}
\@writefile{toc}{\contentsline {section}{\numberline {4}Dropout as weight decay}{3}}
\@writefile{toc}{\contentsline {section}{\numberline {5}Dropout as Geometric Ensemble}{4}}
\@writefile{toc}{\contentsline {section}{\numberline {6}Normalization}{5}}
