\relax 
\@writefile{toc}{\contentsline {section}{\numberline {1}Filling in the gaps}{1}}
\@writefile{toc}{\contentsline {subsection}{\numberline {(a)}Constraints on parameters}{1}}
\@writefile{toc}{\contentsline {subsection}{\numberline {(b)}Dependency graph}{1}}
\@writefile{toc}{\contentsline {section}{\numberline {2}Implement the Neural Turing Machine}{1}}
\@writefile{toc}{\contentsline {subsection}{\numberline {(a)}Understanding the shift operator}{1}}
