# Fdb version 3
["pdflatex"] 1522683392 "tp3.tex" "tp3.pdf" "tp3" 1522683398
  "/usr/share/texmf-dist/fonts/map/fontname/texfonts.map" 1520157216 3332 103109f5612ad95229751940c61aada0 ""
  "/usr/share/texmf-dist/fonts/tfm/public/amsfonts/cmextra/cmex7.tfm" 1520157226 1004 54797486969f23fa377b128694d548df ""
  "/usr/share/texmf-dist/fonts/tfm/public/amsfonts/cmextra/cmex8.tfm" 1520157226 988 bdf658c3bfc2d96d3c8b02cfc1c94c20 ""
  "/usr/share/texmf-dist/fonts/tfm/public/amsfonts/symbols/msam10.tfm" 1520157226 916 f87d7c45f9c908e672703b83b72241a3 ""
  "/usr/share/texmf-dist/fonts/tfm/public/amsfonts/symbols/msam5.tfm" 1520157226 924 9904cf1d39e9767e7a3622f2a125a565 ""
  "/usr/share/texmf-dist/fonts/tfm/public/amsfonts/symbols/msam7.tfm" 1520157226 928 2dc8d444221b7a635bb58038579b861a ""
  "/usr/share/texmf-dist/fonts/tfm/public/amsfonts/symbols/msbm10.tfm" 1520157226 908 2921f8a10601f252058503cc6570e581 ""
  "/usr/share/texmf-dist/fonts/tfm/public/amsfonts/symbols/msbm5.tfm" 1520157226 940 75ac932a52f80982a9f8ea75d03a34cf ""
  "/usr/share/texmf-dist/fonts/tfm/public/amsfonts/symbols/msbm7.tfm" 1520157226 940 228d6584342e91276bf566bcf9716b83 ""
  "/usr/share/texmf-dist/fonts/tfm/public/cm/cmbx12.tfm" 1520157226 1324 c910af8c371558dc20f2d7822f66fe64 ""
  "/usr/share/texmf-dist/fonts/tfm/public/cm/cmex10.tfm" 1520157226 992 662f679a0b3d2d53c1b94050fdaa3f50 ""
  "/usr/share/texmf-dist/fonts/tfm/public/cm/cmmi12.tfm" 1520157226 1524 4414a8315f39513458b80dfc63bff03a ""
  "/usr/share/texmf-dist/fonts/tfm/public/cm/cmmi6.tfm" 1520157226 1512 f21f83efb36853c0b70002322c1ab3ad ""
  "/usr/share/texmf-dist/fonts/tfm/public/cm/cmmi8.tfm" 1520157226 1520 eccf95517727cb11801f4f1aee3a21b4 ""
  "/usr/share/texmf-dist/fonts/tfm/public/cm/cmr12.tfm" 1520157226 1288 655e228510b4c2a1abe905c368440826 ""
  "/usr/share/texmf-dist/fonts/tfm/public/cm/cmr17.tfm" 1520157226 1292 296a67155bdbfc32aa9c636f21e91433 ""
  "/usr/share/texmf-dist/fonts/tfm/public/cm/cmr6.tfm" 1520157226 1300 b62933e007d01cfd073f79b963c01526 ""
  "/usr/share/texmf-dist/fonts/tfm/public/cm/cmr8.tfm" 1520157226 1292 21c1c5bfeaebccffdb478fd231a0997d ""
  "/usr/share/texmf-dist/fonts/tfm/public/cm/cmsy10.tfm" 1520157226 1124 6c73e740cf17375f03eec0ee63599741 ""
  "/usr/share/texmf-dist/fonts/tfm/public/cm/cmsy6.tfm" 1520157226 1116 933a60c408fc0a863a92debe84b2d294 ""
  "/usr/share/texmf-dist/fonts/tfm/public/cm/cmsy8.tfm" 1520157226 1120 8b7d695260f3cff42e636090a8002094 ""
  "/usr/share/texmf-dist/fonts/type1/public/amsfonts/cm/cmbx12.pfb" 1520157214 32080 340ef9bf63678554ee606688e7b5339d ""
  "/usr/share/texmf-dist/fonts/type1/public/amsfonts/cm/cmex10.pfb" 1520157213 30251 6afa5cb1d0204815a708a080681d4674 ""
  "/usr/share/texmf-dist/fonts/type1/public/amsfonts/cm/cmmi10.pfb" 1520157213 36299 5f9df58c2139e7edcf37c8fca4bd384d ""
  "/usr/share/texmf-dist/fonts/type1/public/amsfonts/cm/cmmi7.pfb" 1520157213 36281 c355509802a035cadc5f15869451dcee ""
  "/usr/share/texmf-dist/fonts/type1/public/amsfonts/cm/cmr10.pfb" 1520157213 35752 024fb6c41858982481f6968b5fc26508 ""
  "/usr/share/texmf-dist/fonts/type1/public/amsfonts/cm/cmr12.pfb" 1520157213 32722 d7379af29a190c3f453aba36302ff5a9 ""
  "/usr/share/texmf-dist/fonts/type1/public/amsfonts/cm/cmr17.pfb" 1520157213 32362 179c33bbf43f19adbb3825bb4e36e57a ""
  "/usr/share/texmf-dist/fonts/type1/public/amsfonts/cm/cmr7.pfb" 1520157213 32762 224316ccc9ad3ca0423a14971cfa7fc1 ""
  "/usr/share/texmf-dist/fonts/type1/public/amsfonts/cm/cmsy10.pfb" 1520157213 32569 5e5ddc8df908dea60932f3c484a54c0d ""
  "/usr/share/texmf-dist/fonts/type1/public/amsfonts/cm/cmsy7.pfb" 1520157213 32716 08e384dc442464e7285e891af9f45947 ""
  "/usr/share/texmf-dist/tex/context/base/mkii/supp-pdf.mkii" 1520157251 71627 94eb9990bed73c364d7f53f960cc8c5b ""
  "/usr/share/texmf-dist/tex/generic/ifxetex/ifxetex.sty" 1520157235 1458 43ab4710dc82f3edeabecd0d099626b2 ""
  "/usr/share/texmf-dist/tex/generic/oberdiek/etexcmds.sty" 1520157236 7612 729a8cc22a1ee0029997c7f74717ae05 ""
  "/usr/share/texmf-dist/tex/generic/oberdiek/ifluatex.sty" 1520157236 7324 2310d1247db0114eb4726807c8837a0e ""
  "/usr/share/texmf-dist/tex/generic/oberdiek/ifpdf.sty" 1520157236 1251 d170e11a3246c3392bc7f59595af42cb ""
  "/usr/share/texmf-dist/tex/generic/oberdiek/ifvtex.sty" 1520157236 6797 90b7f83b0ad46826bc16058b1e3d48df ""
  "/usr/share/texmf-dist/tex/generic/oberdiek/infwarerr.sty" 1520157236 8253 473e0e41f9adadb1977e8631b8f72ea6 ""
  "/usr/share/texmf-dist/tex/generic/oberdiek/kvdefinekeys.sty" 1520157236 5152 b67a3a964ad9851e095110c854a1d461 ""
  "/usr/share/texmf-dist/tex/generic/oberdiek/kvsetkeys.sty" 1520157236 14040 ac8866aac45982ac84021584b0abb252 ""
  "/usr/share/texmf-dist/tex/generic/oberdiek/ltxcmds.sty" 1520157236 18425 5b3c0c59d76fac78978b5558e83c1f36 ""
  "/usr/share/texmf-dist/tex/generic/oberdiek/pdftexcmds.sty" 1520157236 20151 787afc7acba22d228640bdc06ce1177c ""
  "/usr/share/texmf-dist/tex/generic/pgf/basiclayer/pgfcore.code.tex" 1520157235 1006 b103be0bfc8c1682ff1fa9760697a329 ""
  "/usr/share/texmf-dist/tex/generic/pgf/basiclayer/pgfcorearrows.code.tex" 1520157235 43226 167a99346bfe2676e3efcdde2d81fe45 ""
  "/usr/share/texmf-dist/tex/generic/pgf/basiclayer/pgfcoreexternal.code.tex" 1520157235 19302 4f089dc590e71f7331e6d5b5ea85273b ""
  "/usr/share/texmf-dist/tex/generic/pgf/basiclayer/pgfcoregraphicstate.code.tex" 1520157235 6068 edae1e768a7d8d8f0f00e953d2b0153e ""
  "/usr/share/texmf-dist/tex/generic/pgf/basiclayer/pgfcoreimage.code.tex" 1520157235 7041 a891ad72049e17c4e366c40ca37b0ccb ""
  "/usr/share/texmf-dist/tex/generic/pgf/basiclayer/pgfcorelayers.code.tex" 1520157235 4625 40c07e9f6f2f7c674704b3f2055560ce ""
  "/usr/share/texmf-dist/tex/generic/pgf/basiclayer/pgfcoreobjects.code.tex" 1520157235 2631 7eefa6cdbefd8d4e2bad7262cf1094cd ""
  "/usr/share/texmf-dist/tex/generic/pgf/basiclayer/pgfcorepathconstruct.code.tex" 1520157235 43477 81143b33d9ebafdeead07ede13372427 ""
  "/usr/share/texmf-dist/tex/generic/pgf/basiclayer/pgfcorepathprocessing.code.tex" 1520157235 17436 8d99d4113be311daf23deff86991ee7d ""
  "/usr/share/texmf-dist/tex/generic/pgf/basiclayer/pgfcorepathusage.code.tex" 1520157235 20772 c57e34db4aa7b1da013169d04b743eac ""
  "/usr/share/texmf-dist/tex/generic/pgf/basiclayer/pgfcorepatterns.code.tex" 1520157235 9641 711f0edc22c180a5caf168b6e8970057 ""
  "/usr/share/texmf-dist/tex/generic/pgf/basiclayer/pgfcorepoints.code.tex" 1520157235 34516 658a71478d21df554bce9d9cd436203a ""
  "/usr/share/texmf-dist/tex/generic/pgf/basiclayer/pgfcorequick.code.tex" 1520157235 3052 e5672c657232fd63b0a9853b0746297c ""
  "/usr/share/texmf-dist/tex/generic/pgf/basiclayer/pgfcorescopes.code.tex" 1520157235 16669 4ec6e40088fc6de6334b443fe2dc59f0 ""
  "/usr/share/texmf-dist/tex/generic/pgf/basiclayer/pgfcoreshade.code.tex" 1520157235 21541 4cd19f8ff7dd74d5aa7d803a6397af84 ""
  "/usr/share/texmf-dist/tex/generic/pgf/basiclayer/pgfcoretransformations.code.tex" 1520157235 19998 d77fef95c7369827753d17fd11be19c4 ""
  "/usr/share/texmf-dist/tex/generic/pgf/basiclayer/pgfcoretransparency.code.tex" 1520157235 8943 2e2495b057f8f0035b5568394d489963 ""
  "/usr/share/texmf-dist/tex/generic/pgf/frontendlayer/tikz/libraries/tikzlibrarytopaths.code.tex" 1520157235 11599 d694704a88e2f9007c996d3a6a4d629c ""
  "/usr/share/texmf-dist/tex/generic/pgf/frontendlayer/tikz/tikz.code.tex" 1520157235 176652 1c2926908e2b356d454795c35385d580 ""
  "/usr/share/texmf-dist/tex/generic/pgf/libraries/pgflibraryplothandlers.code.tex" 1520157235 32969 dbcfd5a7de6a0f7255c333ef60287d59 ""
  "/usr/share/texmf-dist/tex/generic/pgf/math/pgfmath.code.tex" 1520157235 454 9e9e7c99f4da4f41698be21eaef4938e ""
  "/usr/share/texmf-dist/tex/generic/pgf/math/pgfmathcalc.code.tex" 1520157235 13416 940ea6971d7a65dc440d3479939c66ae ""
  "/usr/share/texmf-dist/tex/generic/pgf/math/pgfmathfloat.code.tex" 1520157235 94097 62ac62cda46eb715560dc27f9ed6e8b1 ""
  "/usr/share/texmf-dist/tex/generic/pgf/math/pgfmathfunctions.base.code.tex" 1520157235 9375 5adc70f722abd29fc250d59e0694b548 ""
  "/usr/share/texmf-dist/tex/generic/pgf/math/pgfmathfunctions.basic.code.tex" 1520157235 22069 7c21c42b15718ce922f36235be360490 ""
  "/usr/share/texmf-dist/tex/generic/pgf/math/pgfmathfunctions.code.tex" 1520157235 8210 a7be5b52ef3d2c087b7dc3d52898b67e ""
  "/usr/share/texmf-dist/tex/generic/pgf/math/pgfmathfunctions.comparison.code.tex" 1520157235 3534 c7f28fbac13616513e513efe93b8569b ""
  "/usr/share/texmf-dist/tex/generic/pgf/math/pgfmathfunctions.integerarithmetics.code.tex" 1520157235 3167 7c9394e79aac27db96a92f9b2792b858 ""
  "/usr/share/texmf-dist/tex/generic/pgf/math/pgfmathfunctions.misc.code.tex" 1520157235 9289 261407875b9dbb0194691c3eb893610f ""
  "/usr/share/texmf-dist/tex/generic/pgf/math/pgfmathfunctions.random.code.tex" 1520157235 7078 946ddf4a7e57219b6afdbad98eb6731b ""
  "/usr/share/texmf-dist/tex/generic/pgf/math/pgfmathfunctions.round.code.tex" 1520157235 2688 139c6abc86761a6190c2f4bef5d752be ""
  "/usr/share/texmf-dist/tex/generic/pgf/math/pgfmathfunctions.trigonometric.code.tex" 1520157235 92284 dcf023dbaa84e6c50e11c2f79fe8cfa6 ""
  "/usr/share/texmf-dist/tex/generic/pgf/math/pgfmathparser.code.tex" 1520157235 35430 046e15fbb65e74d8f0e7945f99741fdb ""
  "/usr/share/texmf-dist/tex/generic/pgf/math/pgfmathutil.code.tex" 1520157235 7099 f44d505bae6c7c2b933cdd63441db4b9 ""
  "/usr/share/texmf-dist/tex/generic/pgf/modules/pgfmodulematrix.code.tex" 1520157235 20934 2328bd2e04520e1ab077ac4ee13b8935 ""
  "/usr/share/texmf-dist/tex/generic/pgf/modules/pgfmoduleplot.code.tex" 1520157235 16203 83cbe1220e389eeee283a6168f9a567b ""
  "/usr/share/texmf-dist/tex/generic/pgf/modules/pgfmoduleshapes.code.tex" 1520157235 42906 d54376d96df1a2ae2d33fb722236d8e9 ""
  "/usr/share/texmf-dist/tex/generic/pgf/systemlayer/pgf.cfg" 1520157235 978 15af626ebd3d4d790aac19170dac04f2 ""
  "/usr/share/texmf-dist/tex/generic/pgf/systemlayer/pgfsys-common-pdf.def" 1520157235 5437 d91f93ed61ecdc57e119849b2d784a0b ""
  "/usr/share/texmf-dist/tex/generic/pgf/systemlayer/pgfsys-pdftex.def" 1520157234 13507 809d848d9262638e1b1705a68a73c566 ""
  "/usr/share/texmf-dist/tex/generic/pgf/systemlayer/pgfsys.code.tex" 1520157234 35113 2ccc50c1c9573e4bac9230d030f9c67c ""
  "/usr/share/texmf-dist/tex/generic/pgf/systemlayer/pgfsysprotocol.code.tex" 1520157234 1983 b5994ebbcee17f1ba3d29bb1bd696fcf ""
  "/usr/share/texmf-dist/tex/generic/pgf/systemlayer/pgfsyssoftpath.code.tex" 1520157234 7881 d459d6057e13d10ce7a227ae44b7295e ""
  "/usr/share/texmf-dist/tex/generic/pgf/utilities/pgffor.code.tex" 1520157234 22211 d696ef78c12269178882d218b2cf191d ""
  "/usr/share/texmf-dist/tex/generic/pgf/utilities/pgfkeys.code.tex" 1520157234 36194 e194ef4e0b396b531a3891feb4b1cc22 ""
  "/usr/share/texmf-dist/tex/generic/pgf/utilities/pgfkeysfiltered.code.tex" 1520157234 33377 af391d6ad1bfcbe2278e191f48e43ba8 ""
  "/usr/share/texmf-dist/tex/generic/pgf/utilities/pgfrcs.code.tex" 1520157234 2536 a3b0529d815a2759ba157b56610a6377 ""
  "/usr/share/texmf-dist/tex/generic/pgf/utilities/pgfutil-common-lists.tex" 1520157234 6833 114eda2cf1d348e0e7e477a1a4dc1941 ""
  "/usr/share/texmf-dist/tex/generic/pgf/utilities/pgfutil-common.tex" 1520157234 16501 ab0135765e27b6b8dae047831fe84818 ""
  "/usr/share/texmf-dist/tex/generic/pgf/utilities/pgfutil-latex.def" 1520157234 5544 294baac9629ba59f675b1f2027ad7136 ""
  "/usr/share/texmf-dist/tex/latex/algorithmicx/algorithmicx.sty" 1520158019 26750 ce139c05a983e19ddca355b43e29c395 ""
  "/usr/share/texmf-dist/tex/latex/algorithmicx/algpseudocode.sty" 1520158019 3457 d9077efe6b74c5a094199256af8d7d9a ""
  "/usr/share/texmf-dist/tex/latex/algorithms/algorithm.sty" 1520158019 3249 15763257e50278eef5db1952ccde229c ""
  "/usr/share/texmf-dist/tex/latex/amsfonts/amsfonts.sty" 1520157234 5949 3f3fd50a8cc94c3d4cbf4fc66cd3df1c ""
  "/usr/share/texmf-dist/tex/latex/amsfonts/amssymb.sty" 1520157234 13829 94730e64147574077f8ecfea9bb69af4 ""
  "/usr/share/texmf-dist/tex/latex/amsfonts/umsa.fd" 1520157234 961 6518c6525a34feb5e8250ffa91731cff ""
  "/usr/share/texmf-dist/tex/latex/amsfonts/umsb.fd" 1520157234 961 d02606146ba5601b5645f987c92e6193 ""
  "/usr/share/texmf-dist/tex/latex/amsmath/amsbsy.sty" 1520157234 2210 5c54ab129b848a5071554186d0168766 ""
  "/usr/share/texmf-dist/tex/latex/amsmath/amsgen.sty" 1520157234 4160 c115536cf8d4ff25aa8c1c9bc4ecb79a ""
  "/usr/share/texmf-dist/tex/latex/amsmath/amsmath.sty" 1520157234 84352 897a476d96a0681047a5b0f91178a3d2 ""
  "/usr/share/texmf-dist/tex/latex/amsmath/amsopn.sty" 1520157234 4115 318a66090112f3aa3f415aeb6fe8540f ""
  "/usr/share/texmf-dist/tex/latex/amsmath/amstext.sty" 1520157234 2431 fe3078ec12fc30287f568596f8e0b948 ""
  "/usr/share/texmf-dist/tex/latex/base/article.cls" 1520157233 19821 310da678527a7dfe2a02c88af38079b7 ""
  "/usr/share/texmf-dist/tex/latex/base/ifthen.sty" 1520157233 5159 a08c9bbd48fc492f15b22e458bef961f ""
  "/usr/share/texmf-dist/tex/latex/base/inputenc.sty" 1520157233 4732 d63eda807ac82cca2ca8488efd31a966 ""
  "/usr/share/texmf-dist/tex/latex/base/omsenc.dfu" 1520157233 2004 ac51aeac484f08c01026120d62677eca ""
  "/usr/share/texmf-dist/tex/latex/base/ot1enc.dfu" 1520157232 3181 1cb3e9ad01f4a01127b2ffd821bfeec7 ""
  "/usr/share/texmf-dist/tex/latex/base/size10.clo" 1520157232 8292 e897c12e1e886ce77fe26afc5d470886 ""
  "/usr/share/texmf-dist/tex/latex/base/t1enc.dfu" 1520157232 11255 9d97362866549d3d3c994b5f28d1b9b5 ""
  "/usr/share/texmf-dist/tex/latex/base/utf8.def" 1520157232 7784 325a2a09984cb5c4ff230f9867145ad3 ""
  "/usr/share/texmf-dist/tex/latex/enumitem/enumitem.sty" 1520158242 42666 6fa770e3485520a6a5f2ea7d259c8f8d ""
  "/usr/share/texmf-dist/tex/latex/float/float.sty" 1520157233 6749 16d2656a1984957e674b149555f1ea1d ""
  "/usr/share/texmf-dist/tex/latex/geometry/geometry.sty" 1520157233 40502 e003406220954b0716679d7928aedd8a ""
  "/usr/share/texmf-dist/tex/latex/graphics-cfg/color.cfg" 1520157233 1213 620bba36b25224fa9b7e1ccb4ecb76fd ""
  "/usr/share/texmf-dist/tex/latex/graphics-cfg/graphics.cfg" 1520157233 1224 978390e9c2234eab29404bc21b268d1e ""
  "/usr/share/texmf-dist/tex/latex/graphics-def/pdftex.def" 1520157233 17334 520b9b85ad8a2a48eda3f643e27a5179 ""
  "/usr/share/texmf-dist/tex/latex/graphics/graphics.sty" 1520157233 15275 7d676729b1bedd3e7f3c6717affb366c ""
  "/usr/share/texmf-dist/tex/latex/graphics/graphicx.sty" 1520157233 9066 649f2ccf62888e3d8c3e57256b70b8e1 ""
  "/usr/share/texmf-dist/tex/latex/graphics/keyval.sty" 1520157233 2594 d18d5e19aa8239cf867fa670c556d2e9 ""
  "/usr/share/texmf-dist/tex/latex/graphics/trig.sty" 1520157233 3980 0a268fbfda01e381fa95821ab13b6aee ""
  "/usr/share/texmf-dist/tex/latex/latexconfig/epstopdf-sys.cfg" 1520157233 678 4792914a8f45be57bb98413425e4c7af ""
  "/usr/share/texmf-dist/tex/latex/listings/listings.cfg" 1520157232 1827 d72ad54409ca5c1068a1939c63441bd2 ""
  "/usr/share/texmf-dist/tex/latex/listings/listings.sty" 1520157232 80336 ff90c926c3d7bfdaa3d80ca57123b0bb ""
  "/usr/share/texmf-dist/tex/latex/listings/lstlang1.sty" 1520157232 93445 48e5be20ba2d0a2ca5c4ce7e292a4bbc ""
  "/usr/share/texmf-dist/tex/latex/listings/lstmisc.sty" 1520157232 77028 c3eb00afb55a32bc13ca8da7f5234377 ""
  "/usr/share/texmf-dist/tex/latex/ms/everysel.sty" 1520157232 4623 936bfb87af7b91b6496a2317f80db16b ""
  "/usr/share/texmf-dist/tex/latex/ms/everyshi.sty" 1520157232 3878 6aa7c08ff2621006e0603349e40a30a8 ""
  "/usr/share/texmf-dist/tex/latex/ms/ragged2e.sty" 1520157232 9938 95cd4dc3edfd2c1a9e8f3f4cc43db1ce ""
  "/usr/share/texmf-dist/tex/latex/oberdiek/epstopdf-base.sty" 1520157232 12095 5337833c991d80788a43d3ce26bd1c46 ""
  "/usr/share/texmf-dist/tex/latex/oberdiek/grfext.sty" 1520157232 7075 2fe3d848bba95f139de11ded085e74aa ""
  "/usr/share/texmf-dist/tex/latex/oberdiek/kvoptions.sty" 1520157232 22417 1d9df1eb66848aa31b18a593099cf45c ""
  "/usr/share/texmf-dist/tex/latex/pgf/basiclayer/pgf.sty" 1520157232 1197 8a80cdde14696a9198f1793a55dcf332 ""
  "/usr/share/texmf-dist/tex/latex/pgf/basiclayer/pgfcore.sty" 1520157232 410 5bf12ea7330e5f12c445332a4fe9a263 ""
  "/usr/share/texmf-dist/tex/latex/pgf/compatibility/pgfcomp-version-0-65.sty" 1520157232 21115 facf03b7dbe5ea2f5f1dce1ac84b5d05 ""
  "/usr/share/texmf-dist/tex/latex/pgf/compatibility/pgfcomp-version-1-18.sty" 1520157232 1091 d9163d29def82ee90370c8a63667742c ""
  "/usr/share/texmf-dist/tex/latex/pgf/frontendlayer/tikz.sty" 1520157232 339 592cf35cba3d400082b8a9a5d0199d70 ""
  "/usr/share/texmf-dist/tex/latex/pgf/math/pgfmath.sty" 1520157232 306 0796eafca5e159e6ec2167a6d22d81b1 ""
  "/usr/share/texmf-dist/tex/latex/pgf/systemlayer/pgfsys.sty" 1520157232 443 0b2e781830192df35c0fd357cf13e26e ""
  "/usr/share/texmf-dist/tex/latex/pgf/utilities/pgffor.sty" 1520157232 348 8927fde343487e003b01a4c2ca34073b ""
  "/usr/share/texmf-dist/tex/latex/pgf/utilities/pgfkeys.sty" 1520157232 274 4cad6e665cc93ac2ac979039a94fa1e1 ""
  "/usr/share/texmf-dist/tex/latex/pgf/utilities/pgfrcs.sty" 1520157232 325 2bcd023400636339210573e2b3ee298b ""
  "/usr/share/texmf-dist/tex/latex/xcolor/xcolor.sty" 1520157230 55589 34128738f682d033422ca125f82e5d62 ""
  "/usr/share/texmf-dist/web2c/texmf.cnf" 1520157258 32585 d82bbcf7626b7842c87671687479e852 ""
  "/var/lib/texmf/fonts/map/pdftex/updmap/pdftex.map" 1522258416 2698543 2cf52b79017c8ffffb2822ab477d393f ""
  "/var/lib/texmf/web2c/pdftex/pdflatex.fmt" 1520983888 7738161 d22f7c52aefe441e9e1787ae073d7a51 ""
  "tp3.aux" 1522683392 267 912f1f59792dcf60d7667ee0a60a4c75 ""
  "tp3.tex" 1522683394 3109 30cbd37818ae979e49e0338a893b8ed7 ""
  (generated)
  "tp3.log"
  "tp3.aux"
  "tp3.pdf"
